09/13/21 13:31

Problem 1 (5 points):
Score += 0

Problem 2 (10 points):
Score += 0

Problem 3 (10 points):
Score += 0

Problem 4 (5 points):
Score += 0

Problem 5 (5 points):
Score += 0

Problem 6 (10 points):
Score += 0

Code Quality (5 points):
Score += 0

Total score: 0/50 = 0.0%

-------------------------------------------------------------------------------

09/20/21 11:36

Problem 1 (5 points):
Score += 5

Problem 2 (10 points):
Score += 10

Problem 3 (10 points):
Score += 10

Problem 4 (5 points):
Score += 5

Problem 5 (5 points):
Score += 5

Problem 6 (10 points):
Score += 10

Code Quality (5 points):
Score += 5

Total score: 50/50 = 100.0%

Excellent!

-------------------------------------------------------------------------------

