10/28/21 17:41

Problem 1 (5 points):
birth month is not supposed to me numeric. Oct > sept doesn't make sense even though 10 > 9.
Score += 4

Problem 2 (10 points):
Score += 10

Problem 3 (10 points):
no major tansformations done
Score += 4

Problem 4 (10 points):
Score += 10

Problem 5 (10 points):
Score += 10

Code Quality (5 points):
Score += 5

Total score: 43/50 = 86.0%

-------------------------------------------------------------------------------

